id,first_name,last_name,email,gender,login
1,Jackqueline,Cobbe,jcobbe0@senate.gov,Female,jcobbe0
2,Bonnibelle,Champagne,bchampagne1@nps.gov,Female,bchampagne1
3,Reeba,Norquoy,rnorquoy2@si.edu,Female,rnorquoy2
4,Melisse,Flaws,mflaws3@taobao.com,Female,mflaws3
5,Kristina,Broughton,kbroughton4@1688.com,Female,kbroughton4
6,Kyle,Harvatt,kharvatt5@webnode.com,Male,kharvatt5
7,Esme,Myrtle,emyrtle6@w3.org,Female,emyrtle6
8,Leona,Fishpool,lfishpool7@csmonitor.com,Female,lfishpool7
9,Kendell,Beauchamp,kbeauchamp8@feedburner.com,Male,kbeauchamp8
10,Micah,Nevins,mnevins9@digg.com,Male,mnevins9
11,Marje,Mallinson,mmallinsona@hhs.gov,Female,mmallinsona
12,Nomi,Swalowe,nswaloweb@theatlantic.com,Female,nswaloweb
13,Adrienne,Steynor,asteynorc@about.me,Female,asteynorc
14,Valentino,Coveley,vcoveleyd@mediafire.com,Male,vcoveleyd
15,Loella,Wigmore,lwigmoree@oracle.com,Female,lwigmoree
16,Merline,Bruford,mbrufordf@cnet.com,Female,mbrufordf
17,Bernardine,Seery,bseeryg@slashdot.org,Female,bseeryg
18,Elvyn,Deverille,edeverilleh@e-recht24.de,Male,edeverilleh
19,Reinhold,Jerram,rjerrami@about.me,Male,rjerrami
20,Ethyl,Jeeves,ejeevesj@blogs.com,Female,ejeevesj
21,Marieann,Litzmann,mlitzmannk@etsy.com,Female,mlitzmannk
22,Dorise,Mewes,dmewesl@homestead.com,Female,dmewesl
23,Carlo,Retchford,cretchfordm@hexun.com,Male,cretchfordm
24,Ignazio,Redrup,iredrupn@scientificamerican.com,Male,iredrupn
25,Chuck,McNabb,cmcnabbo@marriott.com,Male,cmcnabbo
26,Wait,Tinner,wtinnerp@plala.or.jp,Male,wtinnerp
27,Bone,Gue,bgueq@list-manage.com,Male,bgueq
28,Levey,Abelov,labelovr@typepad.com,Male,labelovr
29,Freeland,Bambrick,fbambricks@discuz.net,Male,fbambricks
30,Hobard,Halfhead,hhalfheadt@gnu.org,Male,hhalfheadt
31,Gardner,Avramov,gavramovu@netlog.com,Male,gavramovu
32,Wiatt,Donan,wdonanv@apache.org,Male,wdonanv
33,Willdon,Bogey,wbogeyw@wordpress.com,Male,wbogeyw
34,Horatia,Muat,hmuatx@unesco.org,Female,hmuatx
35,Sabrina,Gannicott,sgannicotty@ted.com,Female,sgannicotty
36,Anatollo,Lean,aleanz@storify.com,Male,aleanz
37,Harriett,Kirmond,hkirmond10@uiuc.edu,Female,hkirmond10
38,Rycca,Casse,rcasse11@uol.com.br,Female,rcasse11
39,Lew,Chalk,lchalk12@123-reg.co.uk,Male,lchalk12
40,Mikol,Jaouen,mjaouen13@cornell.edu,Male,mjaouen13
41,Cam,Rubinowicz,crubinowicz14@techcrunch.com,Female,crubinowicz14
42,Rosella,Eam,ream15@over-blog.com,Female,ream15
43,Callida,Crossgrove,ccrossgrove16@com.com,Female,ccrossgrove16
44,Myrtle,Frisby,mfrisby17@wikipedia.org,Female,mfrisby17
45,Siward,Pauluzzi,spauluzzi18@gravatar.com,Male,spauluzzi18
46,Bert,Sarjeant,bsarjeant19@yandex.ru,Male,bsarjeant19
47,Tory,Bleasdale,tbleasdale1a@quantcast.com,Female,tbleasdale1a
48,Ali,Shawcross,ashawcross1b@mashable.com,Male,ashawcross1b
49,Ade,Walenta,awalenta1c@economist.com,Male,awalenta1c
50,Gustavus,Wollen,gwollen1d@cloudflare.com,Male,gwollen1d
51,Reinaldos,Cristofol,rcristofol1e@spotify.com,Male,rcristofol1e
52,Oliy,Killner,okillner1f@freewebs.com,Female,okillner1f
53,Phaedra,Dionisetto,pdionisetto1g@berkeley.edu,Female,pdionisetto1g
54,Thom,Woodcraft,twoodcraft1h@shareasale.com,Male,twoodcraft1h
55,Ash,Glasscoe,aglasscoe1i@ihg.com,Male,aglasscoe1i
56,Jobyna,Paydon,jpaydon1j@netscape.com,Female,jpaydon1j
57,Guinna,Das,gdas1k@omniture.com,Female,gdas1k
58,Darren,Gillani,dgillani1l@gmpg.org,Male,dgillani1l
59,Chance,Carbery,ccarbery1m@purevolume.com,Male,ccarbery1m
60,Liane,Tonkes,ltonkes1n@about.com,Female,ltonkes1n
61,Morley,Ganning,mganning1o@google.ca,Male,mganning1o
62,Cookie,Whitwell,cwhitwell1p@miibeian.gov.cn,Female,cwhitwell1p
63,Tully,Estable,testable1q@walmart.com,Male,testable1q
64,Gene,Sandon,gsandon1r@seattletimes.com,Male,gsandon1r
65,Archibaldo,McIlvaney,amcilvaney1s@multiply.com,Male,amcilvaney1s
66,Conney,Keeney,ckeeney1t@photobucket.com,Male,ckeeney1t
67,West,Maas,wmaas1u@de.vu,Male,wmaas1u
68,Garrot,Kincade,gkincade1v@uiuc.edu,Male,gkincade1v
69,Phylis,Dawtrey,pdawtrey1w@google.com.au,Female,pdawtrey1w
70,Andros,Fallen,afallen1x@netvibes.com,Male,afallen1x
71,Shaylah,Gillyett,sgillyett1y@4shared.com,Female,sgillyett1y
72,Mirilla,Heustice,mheustice1z@apple.com,Female,mheustice1z
73,Sheena,Macon,smacon20@sbwire.com,Female,smacon20
74,Leland,Waby,lwaby21@youtube.com,Male,lwaby21
75,Issi,Roblin,iroblin22@exblog.jp,Female,iroblin22
76,Nissie,Dedrick,ndedrick23@amazon.co.uk,Female,ndedrick23
77,Sibley,Eborn,seborn24@hostgator.com,Female,seborn24
78,Gifford,Kippie,gkippie25@photobucket.com,Male,gkippie25
79,Freedman,Trayton,ftrayton26@howstuffworks.com,Male,ftrayton26
80,Kathleen,Caig,kcaig27@gizmodo.com,Female,kcaig27
81,Elfrida,Savile,esavile28@yellowpages.com,Female,esavile28
82,Minette,Wrist,mwrist29@npr.org,Female,mwrist29
83,Eran,Slinn,eslinn2a@bigcartel.com,Female,eslinn2a
84,Elsa,Sheehy,esheehy2b@bluehost.com,Female,esheehy2b
85,Mitchel,Pyle,mpyle2c@desdev.cn,Male,mpyle2c
86,Elena,Reay,ereay2d@yellowpages.com,Female,ereay2d
87,Doug,Izkovicz,dizkovicz2e@hatena.ne.jp,Male,dizkovicz2e
88,Rosene,Reburn,rreburn2f@google.co.uk,Female,rreburn2f
89,Imogen,Pietrzak,ipietrzak2g@reference.com,Female,ipietrzak2g
90,Herrick,Aguirrezabala,haguirrezabala2h@sbwire.com,Male,haguirrezabala2h
91,Sydelle,Bathow,sbathow2i@cbc.ca,Female,sbathow2i
92,Kass,Finnimore,kfinnimore2j@pagesperso-orange.fr,Female,kfinnimore2j
93,Chaunce,Baudts,cbaudts2k@cbsnews.com,Male,cbaudts2k
94,Brantley,Goldring,bgoldring2l@wordpress.org,Male,bgoldring2l
95,Luke,Lambirth,llambirth2m@bing.com,Male,llambirth2m
96,Josefina,Bettenson,jbettenson2n@dropbox.com,Female,jbettenson2n
97,Gusty,Quaintance,gquaintance2o@washington.edu,Female,gquaintance2o
98,Anastasia,Brimley,abrimley2p@biblegateway.com,Female,abrimley2p
99,Tobias,Deplacido,tdeplacido2q@wikia.com,Male,tdeplacido2q
100,Gallagher,Dormand,gdormand2r@opera.com,Male,gdormand2r
101,Addie,Ivantsov,aivantsov2s@parallels.com,Male,aivantsov2s
102,Elsa,Joncic,ejoncic2t@blinklist.com,Female,ejoncic2t
103,Bogey,Penwright,bpenwright2u@cnet.com,Male,bpenwright2u
104,Barty,Twinbourne,btwinbourne2v@telegraph.co.uk,Male,btwinbourne2v
105,Berton,de Castelain,bdecastelain2w@about.me,Male,bdecastelain2w
106,Rebekah,Robinett,rrobinett2x@uol.com.br,Female,rrobinett2x
107,Lindie,Thormwell,lthormwell2y@google.cn,Female,lthormwell2y
108,Mychal,Stivens,mstivens2z@seesaa.net,Male,mstivens2z
109,Brande,Syplus,bsyplus30@oracle.com,Female,bsyplus30
110,Bibby,Feldstein,bfeldstein31@ed.gov,Female,bfeldstein31
111,Nels,Pietraszek,npietraszek32@ftc.gov,Male,npietraszek32
112,Chevalier,Banbrook,cbanbrook33@arizona.edu,Male,cbanbrook33
113,Morris,Shortt,mshortt34@wordpress.com,Male,mshortt34
114,Marve,Dionisetto,mdionisetto35@google.com.au,Male,mdionisetto35
115,Gregoire,Pearman,gpearman36@g.co,Male,gpearman36
116,Jessee,Petheridge,jpetheridge37@cdc.gov,Male,jpetheridge37
117,Trumann,Fenkel,tfenkel38@biblegateway.com,Male,tfenkel38
118,Gilberte,Harlin,gharlin39@hud.gov,Female,gharlin39
119,Pegeen,Birbeck,pbirbeck3a@jiathis.com,Female,pbirbeck3a
120,Bobbe,Hultberg,bhultberg3b@w3.org,Female,bhultberg3b
121,Meade,Cream,mcream3c@nasa.gov,Female,mcream3c
122,Tracey,Plumb,tplumb3d@pcworld.com,Female,tplumb3d
123,Tabbie,Seak,tseak3e@telegraph.co.uk,Female,tseak3e
124,Ludvig,Pate,lpate3f@t-online.de,Male,lpate3f
125,Kinna,Worviell,kworviell3g@paginegialle.it,Female,kworviell3g
126,Clari,Ghelerdini,cghelerdini3h@pbs.org,Female,cghelerdini3h
127,Dorothea,Vanderplas,dvanderplas3i@surveymonkey.com,Female,dvanderplas3i
128,Isak,Fabbro,ifabbro3j@bizjournals.com,Male,ifabbro3j
129,Jo-anne,Hursey,jhursey3k@diigo.com,Female,jhursey3k
130,Tobin,Menear,tmenear3l@alibaba.com,Male,tmenear3l
131,Brady,Aindrais,baindrais3m@shop-pro.jp,Male,baindrais3m
132,Miranda,Measor,mmeasor3n@prlog.org,Female,mmeasor3n
133,Marty,Krook,mkrook3o@hubpages.com,Female,mkrook3o
134,Devonna,Packer,dpacker3p@admin.ch,Female,dpacker3p
135,Byran,Gyford,bgyford3q@answers.com,Male,bgyford3q
136,Frieda,Schubbert,fschubbert3r@dailymail.co.uk,Female,fschubbert3r
137,Garfield,Paskerful,gpaskerful3s@reuters.com,Male,gpaskerful3s
138,Kristofor,Fellgett,kfellgett3t@deliciousdays.com,Male,kfellgett3t
139,Philipa,Pochet,ppochet3u@purevolume.com,Female,ppochet3u
140,Ware,Eppson,weppson3v@indiegogo.com,Male,weppson3v
141,Lothaire,Goodhew,lgoodhew3w@ca.gov,Male,lgoodhew3w
142,Cassie,Mosedale,cmosedale3x@cdc.gov,Male,cmosedale3x
143,Fons,Weatherhogg,fweatherhogg3y@quantcast.com,Male,fweatherhogg3y
144,Revkah,Brearton,rbrearton3z@amazon.com,Female,rbrearton3z
145,Willi,Beggini,wbeggini40@geocities.com,Female,wbeggini40
146,Sophia,Chesswas,schesswas41@artisteer.com,Female,schesswas41
147,Wat,Ferneley,wferneley42@is.gd,Male,wferneley42
148,Reiko,Denyukhin,rdenyukhin43@amazon.co.jp,Female,rdenyukhin43
149,Waylan,Pinnocke,wpinnocke44@altervista.org,Male,wpinnocke44
150,Benji,Kindley,bkindley45@merriam-webster.com,Male,bkindley45
151,Nev,Brickett,nbrickett46@dell.com,Male,nbrickett46
152,Tedmund,Clemente,tclemente47@nymag.com,Male,tclemente47
153,Zacharias,Camoys,zcamoys48@eventbrite.com,Male,zcamoys48
154,Lynne,Latimer,llatimer49@surveymonkey.com,Female,llatimer49
155,Davide,Anten,danten4a@bluehost.com,Male,danten4a
156,Dilly,Ornelas,dornelas4b@europa.eu,Male,dornelas4b
157,Patsy,Tomaello,ptomaello4c@moonfruit.com,Female,ptomaello4c
158,Mathias,Grund,mgrund4d@yandex.ru,Male,mgrund4d
159,Gratia,Gerald,ggerald4e@privacy.gov.au,Female,ggerald4e
160,Maryanna,Reubens,mreubens4f@addthis.com,Female,mreubens4f
161,Arturo,Marham,amarham4g@facebook.com,Male,amarham4g
162,Nicki,Olphert,nolphert4h@cyberchimps.com,Female,nolphert4h
163,Zsazsa,Cordingly,zcordingly4i@livejournal.com,Female,zcordingly4i
164,Rivalee,Vigne,rvigne4j@mayoclinic.com,Female,rvigne4j
165,Noreen,Mouncher,nmouncher4k@1und1.de,Female,nmouncher4k
166,Tawnya,Pridham,tpridham4l@dailymail.co.uk,Female,tpridham4l
167,Vinni,Loding,vloding4m@blinklist.com,Female,vloding4m
168,George,Slayton,gslayton4n@webmd.com,Female,gslayton4n
169,Jozef,Carsey,jcarsey4o@cbc.ca,Male,jcarsey4o
170,Mike,Bibb,mbibb4p@reddit.com,Male,mbibb4p
171,Theobald,Stepney,tstepney4q@sina.com.cn,Male,tstepney4q
172,Tedmund,Billin,tbillin4r@prweb.com,Male,tbillin4r
173,Damita,Leber,dleber4s@flickr.com,Female,dleber4s
174,Costanza,Ratcliff,cratcliff4t@slideshare.net,Female,cratcliff4t
175,Osborn,Patron,opatron4u@comsenz.com,Male,opatron4u
176,Pearl,Redfern,predfern4v@acquirethisname.com,Female,predfern4v
177,Lyell,Petche,lpetche4w@squidoo.com,Male,lpetche4w
178,Buckie,Ekell,bekell4x@elpais.com,Male,bekell4x
179,Benito,MacMenemy,bmacmenemy4y@bloomberg.com,Male,bmacmenemy4y
180,Mira,Grendon,mgrendon4z@booking.com,Female,mgrendon4z
181,Cairistiona,Cunnington,ccunnington50@cisco.com,Female,ccunnington50
182,Trudie,Wyeth,twyeth51@hhs.gov,Female,twyeth51
183,Adore,Tidbury,atidbury52@lycos.com,Female,atidbury52
184,Barrie,Oluwatoyin,boluwatoyin53@pagesperso-orange.fr,Female,boluwatoyin53
185,Steven,Comford,scomford54@de.vu,Male,scomford54
186,Ashil,Wawer,awawer55@foxnews.com,Female,awawer55
187,Delcina,Durnell,ddurnell56@addthis.com,Female,ddurnell56
188,Olympe,Gowdie,ogowdie57@buzzfeed.com,Female,ogowdie57
189,Hayyim,Vlahos,hvlahos58@diigo.com,Male,hvlahos58
190,Harman,Spuner,hspuner59@typepad.com,Male,hspuner59
191,Marabel,Dodshun,mdodshun5a@smugmug.com,Female,mdodshun5a
192,Cathrine,Gherardi,cgherardi5b@networksolutions.com,Female,cgherardi5b
193,Amalle,Veregan,averegan5c@yelp.com,Female,averegan5c
194,Brandon,Scad,bscad5d@163.com,Male,bscad5d
195,Curry,Dugald,cdugald5e@wufoo.com,Male,cdugald5e
196,Lenard,Hiscocks,lhiscocks5f@dyndns.org,Male,lhiscocks5f
197,Gare,Kniveton,gkniveton5g@geocities.jp,Male,gkniveton5g
198,Selle,Storah,sstorah5h@huffingtonpost.com,Female,sstorah5h
199,Hanni,Norris,hnorris5i@trellian.com,Female,hnorris5i
200,Aylmer,Hunnicot,ahunnicot5j@army.mil,Male,ahunnicot5j
201,Daphna,Maguire,dmaguire5k@wordpress.org,Female,dmaguire5k
202,Corella,Fawlo,cfawlo5l@tmall.com,Female,cfawlo5l
203,Derry,Linfield,dlinfield5m@barnesandnoble.com,Male,dlinfield5m
204,Mahmoud,Ferencz,mferencz5n@bbb.org,Male,mferencz5n
205,Hilarius,Rabb,hrabb5o@creativecommons.org,Male,hrabb5o
206,Annamarie,Kleis,akleis5p@netvibes.com,Female,akleis5p
207,Marita,Avon,mavon5q@alexa.com,Female,mavon5q
208,Upton,Vanichkin,uvanichkin5r@latimes.com,Male,uvanichkin5r
209,Raphaela,Capell,rcapell5s@psu.edu,Female,rcapell5s
210,Wilona,Phillps,wphillps5t@pcworld.com,Female,wphillps5t
211,Yolanthe,Servis,yservis5u@newyorker.com,Female,yservis5u
212,Dario,Rosbottom,drosbottom5v@istockphoto.com,Male,drosbottom5v
213,Tracey,Firidolfi,tfiridolfi5w@nih.gov,Male,tfiridolfi5w
214,Daisy,Bayfield,dbayfield5x@unicef.org,Female,dbayfield5x
215,Alain,Gludor,agludor5y@tiny.cc,Male,agludor5y
216,Mile,Roughan,mroughan5z@acquirethisname.com,Male,mroughan5z
217,Anthia,Simcox,asimcox60@sitemeter.com,Female,asimcox60
218,Cheryl,Sigge,csigge61@twitpic.com,Female,csigge61
219,Homerus,Ragless,hragless62@bravesites.com,Male,hragless62
220,Emmalynne,Addicote,eaddicote63@joomla.org,Female,eaddicote63
221,Dame,Van Arsdalen,dvanarsdalen64@mail.ru,Male,dvanarsdalen64
222,Clerkclaude,Varran,cvarran65@nba.com,Male,cvarran65
223,Addi,Mc Pake,amcpake66@cdbaby.com,Female,amcpake66
224,Fonzie,Merida,fmerida67@friendfeed.com,Male,fmerida67
225,Selle,O' Hanvey,sohanvey68@netlog.com,Female,sohanvey68
226,Cornie,Danilchenko,cdanilchenko69@tmall.com,Male,cdanilchenko69
227,Juli,Spoor,jspoor6a@wired.com,Female,jspoor6a
228,Doe,Rhucroft,drhucroft6b@wordpress.com,Female,drhucroft6b
229,Glynda,Chillcot,gchillcot6c@dailymotion.com,Female,gchillcot6c
230,Forrester,Fidgett,ffidgett6d@cyberchimps.com,Male,ffidgett6d
231,Ame,Cressy,acressy6e@vinaora.com,Female,acressy6e
232,Rycca,Burbury,rburbury6f@nymag.com,Female,rburbury6f
233,Frans,Belly,fbelly6g@ucla.edu,Male,fbelly6g
234,Giulio,Keddey,gkeddey6h@networkadvertising.org,Male,gkeddey6h
235,Con,Dury,cdury6i@deliciousdays.com,Female,cdury6i
236,Guthrey,Riseam,griseam6j@1688.com,Male,griseam6j
237,Rochell,Karp,rkarp6k@aol.com,Female,rkarp6k
238,Kathie,Winchurch,kwinchurch6l@sogou.com,Female,kwinchurch6l
239,Rosanna,Cammell,rcammell6m@blogger.com,Female,rcammell6m
240,Claybourne,Benedtti,cbenedtti6n@de.vu,Male,cbenedtti6n
241,Charlie,Arkley,carkley6o@addthis.com,Male,carkley6o
242,Katerina,Calafate,kcalafate6p@ucoz.com,Female,kcalafate6p
243,Wallas,Upcott,wupcott6q@yahoo.co.jp,Male,wupcott6q
244,Barth,Pont,bpont6r@csmonitor.com,Male,bpont6r
245,Costanza,Steenson,csteenson6s@nymag.com,Female,csteenson6s
246,Carlos,Drane,cdrane6t@elpais.com,Male,cdrane6t
247,Camella,Gracey,cgracey6u@sciencedirect.com,Female,cgracey6u
248,Adolphus,McDuff,amcduff6v@tuttocitta.it,Male,amcduff6v
249,Tabbatha,Cuffe,tcuffe6w@washingtonpost.com,Female,tcuffe6w
250,Lilli,Chorlton,lchorlton6x@clickbank.net,Female,lchorlton6x
251,Hadrian,Nitto,hnitto6y@youku.com,Male,hnitto6y
252,Briano,McLukie,bmclukie6z@surveymonkey.com,Male,bmclukie6z
253,Gene,Shovlin,gshovlin70@tinyurl.com,Female,gshovlin70
254,Legra,How,lhow71@tripadvisor.com,Female,lhow71
255,Katherine,Nesey,knesey72@bloomberg.com,Female,knesey72
256,Cosetta,Deakan,cdeakan73@utexas.edu,Female,cdeakan73
257,Chase,Devenny,cdevenny74@indiegogo.com,Male,cdevenny74
258,Marten,O'Glessane,moglessane75@trellian.com,Male,moglessane75
259,Lettie,McSherry,lmcsherry76@psu.edu,Female,lmcsherry76
260,Chet,Duchenne,cduchenne77@tripod.com,Male,cduchenne77
261,Darrin,Witter,dwitter78@fotki.com,Male,dwitter78
262,Hyacinth,Sellman,hsellman79@tamu.edu,Female,hsellman79
263,Joann,Jaray,jjaray7a@google.cn,Female,jjaray7a
264,Nichols,Houseley,nhouseley7b@cbslocal.com,Male,nhouseley7b
265,Tedman,Beneteau,tbeneteau7c@tmall.com,Male,tbeneteau7c
266,Kristopher,Ever,kever7d@cdc.gov,Male,kever7d
267,Erick,Fewless,efewless7e@ucoz.com,Male,efewless7e
268,Avictor,Penniell,apenniell7f@hp.com,Male,apenniell7f
269,Brigitta,Boog,bboog7g@printfriendly.com,Female,bboog7g
270,Marisa,Breazeall,mbreazeall7h@scribd.com,Female,mbreazeall7h
271,Delmore,Gehrts,dgehrts7i@bravesites.com,Male,dgehrts7i
272,Keenan,Blue,kblue7j@kickstarter.com,Male,kblue7j
273,Shanan,Chown,schown7k@bing.com,Male,schown7k
274,Amandy,Coneau,aconeau7l@uiuc.edu,Female,aconeau7l
275,Mitzi,Goodbanne,mgoodbanne7m@pbs.org,Female,mgoodbanne7m
276,Clari,Harper,charper7n@slate.com,Female,charper7n
277,Travis,McDaid,tmcdaid7o@wsj.com,Male,tmcdaid7o
278,Antoinette,Mutton,amutton7p@amazon.co.uk,Female,amutton7p
279,Delly,Dayce,ddayce7q@cdc.gov,Female,ddayce7q
280,Leona,Ruhben,lruhben7r@ucoz.com,Female,lruhben7r
281,Koren,Ades,kades7s@businesswire.com,Female,kades7s
282,Christiane,Kingsley,ckingsley7t@amazon.co.uk,Female,ckingsley7t
283,Martyn,Standbrook,mstandbrook7u@mtv.com,Male,mstandbrook7u
284,Gan,Wattisham,gwattisham7v@vinaora.com,Male,gwattisham7v
285,Amberly,Battie,abattie7w@sun.com,Female,abattie7w
286,Kate,Gaddie,kgaddie7x@twitpic.com,Female,kgaddie7x
287,Jillane,Fassam,jfassam7y@gnu.org,Female,jfassam7y
288,Aaren,Hanney,ahanney7z@usatoday.com,Female,ahanney7z
289,Sauveur,Sherrett,ssherrett80@omniture.com,Male,ssherrett80
290,Merola,Dudding,mdudding81@slashdot.org,Female,mdudding81
291,Emilee,Lindeberg,elindeberg82@zdnet.com,Female,elindeberg82
292,Roderich,Caulcutt,rcaulcutt83@tumblr.com,Male,rcaulcutt83
293,Priscilla,Happel,phappel84@irs.gov,Female,phappel84
294,Abagail,Northage,anorthage85@ovh.net,Female,anorthage85
295,Fraser,Pitcher,fpitcher86@sbwire.com,Male,fpitcher86
296,Matthiew,Cammish,mcammish87@gizmodo.com,Male,mcammish87
297,Ulysses,Batt,ubatt88@over-blog.com,Male,ubatt88
298,Nonnah,Kleinerman,nkleinerman89@mysql.com,Female,nkleinerman89
299,Dionis,Whellans,dwhellans8a@bbc.co.uk,Female,dwhellans8a
300,Marie-ann,Lamort,mlamort8b@posterous.com,Female,mlamort8b
301,Derril,Lampaert,dlampaert8c@digg.com,Male,dlampaert8c
302,Chucho,Hallsworth,challsworth8d@spotify.com,Male,challsworth8d
303,Corey,Badcock,cbadcock8e@mlb.com,Male,cbadcock8e
304,Martguerita,Yalden,myalden8f@lycos.com,Female,myalden8f
305,Kimberlyn,Behling,kbehling8g@google.co.jp,Female,kbehling8g
306,Vinny,Laister,vlaister8h@comsenz.com,Male,vlaister8h
307,Faydra,Matuska,fmatuska8i@de.vu,Female,fmatuska8i
308,Jaynell,Bortolazzi,jbortolazzi8j@wp.com,Female,jbortolazzi8j
309,Delmore,Leel,dleel8k@ftc.gov,Male,dleel8k
310,Huntley,Akker,hakker8l@cmu.edu,Male,hakker8l
311,Tessi,Grooby,tgrooby8m@delicious.com,Female,tgrooby8m
312,Quinta,Gotthard,qgotthard8n@seesaa.net,Female,qgotthard8n
313,Vite,Ilson,vilson8o@1688.com,Male,vilson8o
314,Gerda,Alentyev,galentyev8p@sogou.com,Female,galentyev8p
315,Graig,Arnott,garnott8q@myspace.com,Male,garnott8q
316,Rafferty,MacRannell,rmacrannell8r@rambler.ru,Male,rmacrannell8r
317,Martica,Danielli,mdanielli8s@1688.com,Female,mdanielli8s
318,Eward,Walne,ewalne8t@google.es,Male,ewalne8t
319,Demetris,Cronkshaw,dcronkshaw8u@freewebs.com,Male,dcronkshaw8u
320,Lonna,Amoss,lamoss8v@xinhuanet.com,Female,lamoss8v
321,Harlan,Daniellot,hdaniellot8w@census.gov,Male,hdaniellot8w
322,Terry,Leghorn,tleghorn8x@spiegel.de,Male,tleghorn8x
323,Tilda,Gwynne,tgwynne8y@google.fr,Female,tgwynne8y
324,Roze,Poyzer,rpoyzer8z@umn.edu,Female,rpoyzer8z
325,Rutger,Smalman,rsmalman90@facebook.com,Male,rsmalman90
326,Rania,Andrews,randrews91@boston.com,Female,randrews91
327,Verina,Joan,vjoan92@jiathis.com,Female,vjoan92
328,Terrie,Lipmann,tlipmann93@unblog.fr,Female,tlipmann93
329,Krissy,Brahms,kbrahms94@scientificamerican.com,Female,kbrahms94
330,Sonja,Ascough,sascough95@hud.gov,Female,sascough95
331,Leanor,Krolman,lkrolman96@odnoklassniki.ru,Female,lkrolman96
332,Hebert,Heditch,hheditch97@nps.gov,Male,hheditch97
333,Dav,Buckmaster,dbuckmaster98@ox.ac.uk,Male,dbuckmaster98
334,Chip,Housaman,chousaman99@washingtonpost.com,Male,chousaman99
335,Melli,Liepins,mliepins9a@indiatimes.com,Female,mliepins9a
336,Jasmin,Brockelsby,jbrockelsby9b@biglobe.ne.jp,Female,jbrockelsby9b
337,Fay,Barroux,fbarroux9c@trellian.com,Female,fbarroux9c
338,Bill,O'Loghlen,bologhlen9d@census.gov,Male,bologhlen9d
339,Viki,Kline,vkline9e@themeforest.net,Female,vkline9e
340,Valaria,Aldington,valdington9f@baidu.com,Female,valdington9f
341,Flori,Havers,fhavers9g@imdb.com,Female,fhavers9g
342,Emilie,Gibb,egibb9h@hibu.com,Female,egibb9h
343,Beverlee,O'Hoolahan,bohoolahan9i@reddit.com,Female,bohoolahan9i
344,Paxton,Hune,phune9j@mit.edu,Male,phune9j
345,Orton,McCawley,omccawley9k@drupal.org,Male,omccawley9k
346,Kennie,Cordoba,kcordoba9l@newyorker.com,Male,kcordoba9l
347,Dur,Jozwicki,djozwicki9m@cmu.edu,Male,djozwicki9m
348,Karna,Portsmouth,kportsmouth9n@illinois.edu,Female,kportsmouth9n
349,Tomi,Faux,tfaux9o@columbia.edu,Female,tfaux9o
350,Sigismondo,Ishak,sishak9p@netvibes.com,Male,sishak9p
351,Judd,Borth,jborth9q@list-manage.com,Male,jborth9q
352,Billy,Rupert,brupert9r@gizmodo.com,Male,brupert9r
353,Ethel,Avieson,eavieson9s@uol.com.br,Female,eavieson9s
354,Noell,Outridge,noutridge9t@cnn.com,Female,noutridge9t
355,Jack,Petracek,jpetracek9u@wikispaces.com,Male,jpetracek9u
356,Leonardo,Forrestall,lforrestall9v@moonfruit.com,Male,lforrestall9v
357,Conny,Jurczik,cjurczik9w@psu.edu,Male,cjurczik9w
358,Dena,Klaesson,dklaesson9x@hostgator.com,Female,dklaesson9x
359,Corrie,Vakhrushev,cvakhrushev9y@china.com.cn,Male,cvakhrushev9y
360,Rycca,Gonneau,rgonneau9z@youtube.com,Female,rgonneau9z
361,Etan,Jeves,ejevesa0@alexa.com,Male,ejevesa0
362,Amaleta,Edinborough,aedinborougha1@blog.com,Female,aedinborougha1
363,Layla,Skey,lskeya2@gov.uk,Female,lskeya2
364,Christine,Whittington,cwhittingtona3@hibu.com,Female,cwhittingtona3
365,Rochell,O'Fogerty,rofogertya4@tumblr.com,Female,rofogertya4
366,Keen,Whitebrook,kwhitebrooka5@dailymotion.com,Male,kwhitebrooka5
367,Kimbell,Gillman,kgillmana6@umich.edu,Male,kgillmana6
368,Cacilia,Hizir,chizira7@sourceforge.net,Female,chizira7
369,Tricia,Candlish,tcandlisha8@google.it,Female,tcandlisha8
370,Pauly,Botting,pbottinga9@wikimedia.org,Male,pbottinga9
371,Pebrook,Havenhand,phavenhandaa@51.la,Male,phavenhandaa
372,Ruddie,Gerbel,rgerbelab@sfgate.com,Male,rgerbelab
373,Shaun,Gouthier,sgouthierac@hexun.com,Male,sgouthierac
374,Ginger,Easlea,geasleaad@elegantthemes.com,Male,geasleaad
375,Jody,Cambell,jcambellae@house.gov,Male,jcambellae
376,Rozelle,Mair,rmairaf@360.cn,Female,rmairaf
377,Cassandra,Bedingfield,cbedingfieldag@smugmug.com,Female,cbedingfieldag
378,Virgil,Meyrick,vmeyrickah@comsenz.com,Male,vmeyrickah
379,Roscoe,Guerrin,rguerrinai@redcross.org,Male,rguerrinai
380,Chad,Dowe,cdoweaj@prweb.com,Female,cdoweaj
381,Rossy,Howchin,rhowchinak@dailymail.co.uk,Male,rhowchinak
382,Pennie,Entwistle,pentwistleal@dion.ne.jp,Female,pentwistleal
383,Maggie,Battman,mbattmanam@vkontakte.ru,Female,mbattmanam
384,Carmen,Fraczak,cfraczakan@jugem.jp,Female,cfraczakan
385,Jasmina,Cardon,jcardonao@nyu.edu,Female,jcardonao
386,Kelwin,Alvey,kalveyap@arstechnica.com,Male,kalveyap
387,Phylys,Geere,pgeereaq@china.com.cn,Female,pgeereaq
388,Daffi,Ogilby,dogilbyar@craigslist.org,Female,dogilbyar
389,Paxon,Lintin,plintinas@fema.gov,Male,plintinas
390,Grata,Jarrell,gjarrellat@wsj.com,Female,gjarrellat
391,Rosa,Reely,rreelyau@admin.ch,Female,rreelyau
392,Hank,Beckmann,hbeckmannav@businessinsider.com,Male,hbeckmannav
393,Riley,Scheu,rscheuaw@sbwire.com,Male,rscheuaw
394,Emilee,Rummery,erummeryax@yandex.ru,Female,erummeryax
395,Skipp,Dickin,sdickinay@wired.com,Male,sdickinay
396,Lena,Tinmouth,ltinmouthaz@amazon.de,Female,ltinmouthaz
397,Rosina,Acey,raceyb0@is.gd,Female,raceyb0
398,Griffin,Klimochkin,gklimochkinb1@stanford.edu,Male,gklimochkinb1
399,Enrichetta,Fitzpatrick,efitzpatrickb2@cnn.com,Female,efitzpatrickb2
400,Shandeigh,Cassey,scasseyb3@tamu.edu,Female,scasseyb3
401,Barbi,Glasser,bglasserb4@unblog.fr,Female,bglasserb4
402,Gregory,Keneford,gkenefordb5@wikispaces.com,Male,gkenefordb5
403,Marchall,Giacomuzzo,mgiacomuzzob6@scientificamerican.com,Male,mgiacomuzzob6
404,Markus,Bass,mbassb7@tripadvisor.com,Male,mbassb7
405,Wat,Middler,wmiddlerb8@friendfeed.com,Male,wmiddlerb8
406,Zorah,Eliaz,zeliazb9@a8.net,Female,zeliazb9
407,Hillier,Isselee,hisseleeba@netvibes.com,Male,hisseleeba
408,Allard,Kimm,akimmbb@xing.com,Male,akimmbb
409,Lezley,Breyt,lbreytbc@paypal.com,Male,lbreytbc
410,Dorice,Pennrington,dpennringtonbd@mapy.cz,Female,dpennringtonbd
411,Garik,McGrey,gmcgreybe@wunderground.com,Male,gmcgreybe
412,Carrie,Garza,cgarzabf@illinois.edu,Female,cgarzabf
413,Hernando,O'Reilly,horeillybg@purevolume.com,Male,horeillybg
414,Devina,Rowlings,drowlingsbh@noaa.gov,Female,drowlingsbh
415,Ty,Seilmann,tseilmannbi@loc.gov,Male,tseilmannbi
416,Urbanus,Pickrill,upickrillbj@time.com,Male,upickrillbj
417,Dorthy,Newing,dnewingbk@wired.com,Female,dnewingbk
418,Donny,Georgeson,dgeorgesonbl@pcworld.com,Female,dgeorgesonbl
419,Frasquito,Kamenar,fkamenarbm@twitter.com,Male,fkamenarbm
420,Stanislaw,Ebbotts,sebbottsbn@dailymail.co.uk,Male,sebbottsbn
421,Arlana,Tonks,atonksbo@ezinearticles.com,Female,atonksbo
422,Carce,Bustard,cbustardbp@princeton.edu,Male,cbustardbp
423,Vivia,Pavlasek,vpavlasekbq@state.gov,Female,vpavlasekbq
424,Tait,Jossum,tjossumbr@washingtonpost.com,Male,tjossumbr
425,Saxe,Tranckle,strancklebs@list-manage.com,Male,strancklebs
426,Felic,Claessens,fclaessensbt@newyorker.com,Male,fclaessensbt
427,Linette,Drage,ldragebu@google.co.uk,Female,ldragebu
428,Mickey,Bambrough,mbambroughbv@blogtalkradio.com,Male,mbambroughbv
429,Madeline,Bilbrook,mbilbrookbw@jigsy.com,Female,mbilbrookbw
430,Dacia,Wreakes,dwreakesbx@biglobe.ne.jp,Female,dwreakesbx
431,Shena,Crouch,scrouchby@marriott.com,Female,scrouchby
432,Alasteir,Ollarenshaw,aollarenshawbz@discuz.net,Male,aollarenshawbz
433,Antony,Wightman,awightmanc0@google.co.jp,Male,awightmanc0
434,Ximenez,Stedman,xstedmanc1@friendfeed.com,Male,xstedmanc1
435,Goran,Sollett,gsollettc2@discovery.com,Male,gsollettc2
436,Si,Matushenko,smatushenkoc3@google.cn,Male,smatushenkoc3
437,Corrie,Ivanyushin,civanyushinc4@chron.com,Female,civanyushinc4
438,Carlotta,Collumbine,ccollumbinec5@google.com.hk,Female,ccollumbinec5
439,Leann,Crutchfield,lcrutchfieldc6@prweb.com,Female,lcrutchfieldc6
440,Dolph,Garett,dgarettc7@posterous.com,Male,dgarettc7
441,Thorin,Nudde,tnuddec8@themeforest.net,Male,tnuddec8
442,Suzanna,Dimbylow,sdimbylowc9@unc.edu,Female,sdimbylowc9
443,Carlyle,Bozier,cbozierca@spotify.com,Male,cbozierca
444,Kettie,Brikner,kbriknercb@ihg.com,Female,kbriknercb
445,Auria,Revill,arevillcc@nymag.com,Female,arevillcc
446,Sidonia,Rosenwald,srosenwaldcd@virginia.edu,Female,srosenwaldcd
447,Ted,Stoite,tstoitece@woothemes.com,Male,tstoitece
448,Octavia,Pignon,opignoncf@netscape.com,Female,opignoncf
449,Dulcie,Lumley,dlumleycg@hibu.com,Female,dlumleycg
450,Annabelle,Edgeler,aedgelerch@ihg.com,Female,aedgelerch
451,Homere,Evamy,hevamyci@lycos.com,Male,hevamyci
452,Raleigh,Broadstock,rbroadstockcj@noaa.gov,Male,rbroadstockcj
453,Hugibert,Clack,hclackck@so-net.ne.jp,Male,hclackck
454,Bevon,Vequaud,bvequaudcl@bigcartel.com,Male,bvequaudcl
455,Courtnay,Popping,cpoppingcm@bing.com,Female,cpoppingcm
456,Abbot,Allsep,aallsepcn@vinaora.com,Male,aallsepcn
457,Frederik,Gelly,fgellyco@oakley.com,Male,fgellyco
458,Robenia,Volks,rvolkscp@ow.ly,Female,rvolkscp
459,Simona,Tadd,staddcq@columbia.edu,Female,staddcq
460,Saleem,Fernez,sfernezcr@slate.com,Male,sfernezcr
461,Isidor,Tuckie,ituckiecs@artisteer.com,Male,ituckiecs
462,Eli,Brim,ebrimct@blog.com,Male,ebrimct
463,Marcel,Gannicott,mgannicottcu@ucoz.com,Male,mgannicottcu
464,Jennilee,Grigs,jgrigscv@springer.com,Female,jgrigscv
465,Britta,Gillespie,bgillespiecw@archive.org,Female,bgillespiecw
466,Andris,Fradson,afradsoncx@berkeley.edu,Male,afradsoncx
467,Free,Emmanuele,femmanuelecy@weibo.com,Male,femmanuelecy
468,Bertrando,Abrahams,babrahamscz@ibm.com,Male,babrahamscz
469,Francoise,Redshaw,fredshawd0@wp.com,Female,fredshawd0
470,Anallise,Stuttman,astuttmand1@illinois.edu,Female,astuttmand1
471,Hewet,Loram,hloramd2@prweb.com,Male,hloramd2
472,Robinia,Halliburton,rhalliburtond3@dot.gov,Female,rhalliburtond3
473,Layton,Mabe,lmabed4@buzzfeed.com,Male,lmabed4
474,Hadley,LLelweln,hllelwelnd5@altervista.org,Male,hllelwelnd5
475,Tami,Damiata,tdamiatad6@g.co,Female,tdamiatad6
476,Lauritz,Durrans,ldurransd7@sciencedirect.com,Male,ldurransd7
477,Tan,Medhurst,tmedhurstd8@cisco.com,Male,tmedhurstd8
478,Baldwin,Delmonti,bdelmontid9@smh.com.au,Male,bdelmontid9
479,Lindsay,Botterill,lbotterillda@dell.com,Female,lbotterillda
480,Vinni,Benkin,vbenkindb@dailymotion.com,Female,vbenkindb
481,Cheslie,Murdy,cmurdydc@mit.edu,Female,cmurdydc
482,Leigh,Krolle,lkrolledd@usatoday.com,Female,lkrolledd
483,Fayette,Headings,fheadingsde@indiatimes.com,Female,fheadingsde
484,Dominique,Garlic,dgarlicdf@usnews.com,Male,dgarlicdf
485,Dex,Waterdrinker,dwaterdrinkerdg@privacy.gov.au,Male,dwaterdrinkerdg
486,Manolo,Neising,mneisingdh@hp.com,Male,mneisingdh
487,Ianthe,Goff,igoffdi@epa.gov,Female,igoffdi
488,Pearce,Stock,pstockdj@merriam-webster.com,Male,pstockdj
489,Maurizia,Korous,mkorousdk@hatena.ne.jp,Female,mkorousdk
490,Jaquenette,Bynold,jbynolddl@google.fr,Female,jbynolddl
491,Caria,Osgar,cosgardm@exblog.jp,Female,cosgardm
492,Chaddy,Eltone,celtonedn@spotify.com,Male,celtonedn
493,Lura,Witt,lwittdo@tiny.cc,Female,lwittdo
494,Wilden,Itzchaky,witzchakydp@boston.com,Male,witzchakydp
495,Rhodia,Anderbrugge,randerbruggedq@ox.ac.uk,Female,randerbruggedq
496,Stanislaus,Thon,sthondr@odnoklassniki.ru,Male,sthondr
497,Tulley,Lewing,tlewingds@icq.com,Male,tlewingds
498,Rona,Llywarch,rllywarchdt@pinterest.com,Female,rllywarchdt
499,Mollee,Kivits,mkivitsdu@dailymail.co.uk,Female,mkivitsdu
500,Mariele,Gadault,mgadaultdv@cdc.gov,Female,mgadaultdv
501,Worden,Hammarberg,whammarbergdw@hc360.com,Male,whammarbergdw
502,Cale,Dartnall,cdartnalldx@issuu.com,Male,cdartnalldx
503,Dolly,McClymond,dmcclymonddy@marketwatch.com,Female,dmcclymonddy
504,Cori,Tuffield,ctuffielddz@i2i.jp,Female,ctuffielddz
505,Sheridan,Ivanchin,sivanchine0@yelp.com,Male,sivanchine0
506,Zitella,Delgardo,zdelgardoe1@japanpost.jp,Female,zdelgardoe1
507,Kip,Dunklee,kdunkleee2@japanpost.jp,Male,kdunkleee2
508,Carol,Moberley,cmoberleye3@cdc.gov,Female,cmoberleye3
509,Cassaundra,Earnshaw,cearnshawe4@stumbleupon.com,Female,cearnshawe4
510,Shena,Taffurelli,staffurellie5@reference.com,Female,staffurellie5
511,Elsie,Zoellner,ezoellnere6@nature.com,Female,ezoellnere6
512,Fairlie,Whacket,fwhackete7@mlb.com,Male,fwhackete7
513,Devina,Grocott,dgrocotte8@amazon.de,Female,dgrocotte8
514,Brandtr,Horney,bhorneye9@npr.org,Male,bhorneye9
515,Nat,Whithalgh,nwhithalghea@last.fm,Male,nwhithalghea
516,Taite,Denyagin,tdenyagineb@e-recht24.de,Male,tdenyagineb
517,Dave,Jamrowicz,djamrowiczec@nytimes.com,Male,djamrowiczec
518,Minna,de Guerre,mdeguerreed@apache.org,Female,mdeguerreed
519,Aigneis,Fretwell,afretwellee@si.edu,Female,afretwellee
520,Ernaline,Boagey,eboageyef@stumbleupon.com,Female,eboageyef
521,Malissia,Lode,mlodeeg@usatoday.com,Female,mlodeeg
522,Agnes,Warlow,awarloweh@amazonaws.com,Female,awarloweh
523,Jo-anne,Dubbin,jdubbinei@stanford.edu,Female,jdubbinei
524,Ella,Bernardo,ebernardoej@devhub.com,Female,ebernardoej
525,Vachel,Snaddin,vsnaddinek@geocities.com,Male,vsnaddinek
526,Cathy,Cosser,ccosserel@edublogs.org,Female,ccosserel
527,Corine,Beardwell,cbeardwellem@boston.com,Female,cbeardwellem
528,Hilly,Purdy,hpurdyen@redcross.org,Male,hpurdyen
529,Roth,Trouncer,rtrouncereo@php.net,Male,rtrouncereo
530,Ewart,Dowsing,edowsingep@china.com.cn,Male,edowsingep
531,Banky,Anfrey,banfreyeq@blogs.com,Male,banfreyeq
532,Jacques,Critchlow,jcritchlower@blogger.com,Male,jcritchlower
533,Terri,Reaney,treaneyes@canalblog.com,Male,treaneyes
534,Jordon,Nutman,jnutmanet@ihg.com,Male,jnutmanet
535,Fayth,Geri,fgerieu@bluehost.com,Female,fgerieu
536,Mada,Vasenkov,mvasenkovev@google.fr,Female,mvasenkovev
537,Eleanora,Fillimore,efillimoreew@samsung.com,Female,efillimoreew
538,Graig,O'Halleghane,gohalleghaneex@example.com,Male,gohalleghaneex
539,Jelene,Etchells,jetchellsey@bloomberg.com,Female,jetchellsey
540,Shandra,Waycott,swaycottez@cnn.com,Female,swaycottez
541,Dara,Adolfson,dadolfsonf0@gnu.org,Female,dadolfsonf0
542,Der,Milvarnie,dmilvarnief1@i2i.jp,Male,dmilvarnief1
543,Candace,Lauritzen,clauritzenf2@gov.uk,Female,clauritzenf2
544,Etheline,Proger,eprogerf3@indiegogo.com,Female,eprogerf3
545,Ina,Bessant,ibessantf4@mysql.com,Female,ibessantf4
546,Zebulon,Toon,ztoonf5@facebook.com,Male,ztoonf5
547,Grover,Fleetwood,gfleetwoodf6@washingtonpost.com,Male,gfleetwoodf6
548,Eunice,Gayforth,egayforthf7@cloudflare.com,Female,egayforthf7
549,Angelle,Barca,abarcaf8@linkedin.com,Female,abarcaf8
550,Damon,Moodie,dmoodief9@shop-pro.jp,Male,dmoodief9
551,Lowrance,Seiler,lseilerfa@csmonitor.com,Male,lseilerfa
552,Gina,Bescoby,gbescobyfb@storify.com,Female,gbescobyfb
553,Lilyan,Rene,lrenefc@wufoo.com,Female,lrenefc
554,Louisa,Drennan,ldrennanfd@yolasite.com,Female,ldrennanfd
555,Teri,Brennen,tbrennenfe@sfgate.com,Female,tbrennenfe
556,Addy,Cramond,acramondff@samsung.com,Male,acramondff
557,Ulla,Tallow,utallowfg@loc.gov,Female,utallowfg
558,Gian,Croad,gcroadfh@phoca.cz,Male,gcroadfh
559,Clarie,Bingle,cbinglefi@usgs.gov,Female,cbinglefi
560,Christopher,Winteringham,cwinteringhamfj@seesaa.net,Male,cwinteringhamfj
561,Genni,Bertenshaw,gbertenshawfk@ocn.ne.jp,Female,gbertenshawfk
562,Bernette,Vaneschi,bvaneschifl@goo.gl,Female,bvaneschifl
563,Far,Botcherby,fbotcherbyfm@odnoklassniki.ru,Male,fbotcherbyfm
564,Rozina,Moyne,rmoynefn@naver.com,Female,rmoynefn
565,Reena,Dendon,rdendonfo@vk.com,Female,rdendonfo
566,Claudetta,Wynrehame,cwynrehamefp@nytimes.com,Female,cwynrehamefp
567,Maxie,Booth,mboothfq@hhs.gov,Female,mboothfq
568,Gabbi,Flobert,gflobertfr@theglobeandmail.com,Female,gflobertfr
569,Avery,Spaven,aspavenfs@php.net,Male,aspavenfs
570,Abeu,Warde,awardeft@prweb.com,Male,awardeft
571,Francisca,Beany,fbeanyfu@va.gov,Female,fbeanyfu
572,Samuele,Smorthit,ssmorthitfv@netscape.com,Male,ssmorthitfv
573,Laetitia,Tomczykiewicz,ltomczykiewiczfw@businesswire.com,Female,ltomczykiewiczfw
574,Britta,Howlings,bhowlingsfx@rediff.com,Female,bhowlingsfx
575,Asa,Rollason,arollasonfy@spiegel.de,Male,arollasonfy
576,Trace,Waddams,twaddamsfz@xrea.com,Male,twaddamsfz
577,Carmencita,Divill,cdivillg0@chron.com,Female,cdivillg0
578,Ginnifer,Trenholm,gtrenholmg1@oakley.com,Female,gtrenholmg1
579,Laurens,Kubiak,lkubiakg2@archive.org,Male,lkubiakg2
580,Arthur,Filippozzi,afilippozzig3@sina.com.cn,Male,afilippozzig3
581,Valentine,Bendik,vbendikg4@ft.com,Male,vbendikg4
582,Iona,Liddel,iliddelg5@miibeian.gov.cn,Female,iliddelg5
583,Hollie,Willingam,hwillingamg6@google.es,Female,hwillingamg6
584,Garner,Scholz,gscholzg7@ca.gov,Male,gscholzg7
585,Ludovika,Stedson,lstedsong8@nifty.com,Female,lstedsong8
586,Dave,Gladbeck,dgladbeckg9@imdb.com,Male,dgladbeckg9
587,Zackariah,MacRorie,zmacroriega@comcast.net,Male,zmacroriega
588,Adolphe,Colliford,acollifordgb@cloudflare.com,Male,acollifordgb
589,Sigfried,Creagh,screaghgc@hatena.ne.jp,Male,screaghgc
590,Lutero,Grzeszczyk,lgrzeszczykgd@sohu.com,Male,lgrzeszczykgd
591,Willdon,Dagless,wdaglessge@utexas.edu,Male,wdaglessge
592,Brady,Cassell,bcassellgf@google.com.br,Male,bcassellgf
593,Levi,Kirvin,lkirvingg@topsy.com,Male,lkirvingg
594,Chiarra,Awin,cawingh@plala.or.jp,Female,cawingh
595,Hollyanne,Trevon,htrevongi@booking.com,Female,htrevongi
596,Ivory,Norcliffe,inorcliffegj@zimbio.com,Female,inorcliffegj
597,Beau,Mackinder,bmackindergk@twitter.com,Male,bmackindergk
598,Darryl,Le Franc,dlefrancgl@google.it,Male,dlefrancgl
599,Didi,Tregidga,dtregidgagm@mayoclinic.com,Female,dtregidgagm
600,Ophelie,Gianotti,ogianottign@amazonaws.com,Female,ogianottign
601,Trumann,Devanney,tdevanneygo@csmonitor.com,Male,tdevanneygo
602,Pamelina,Bickardike,pbickardikegp@wikipedia.org,Female,pbickardikegp
603,Micheline,Campanelli,mcampanelligq@ucsd.edu,Female,mcampanelligq
604,Trina,Delete,tdeletegr@vimeo.com,Female,tdeletegr
605,Moshe,Dzeniskevich,mdzeniskevichgs@chicagotribune.com,Male,mdzeniskevichgs
606,Read,Burnsides,rburnsidesgt@wiley.com,Male,rburnsidesgt
607,Celinka,Hazell,chazellgu@tinyurl.com,Female,chazellgu
608,Wilbert,Pennick,wpennickgv@youtube.com,Male,wpennickgv
609,Keely,Wassung,kwassunggw@examiner.com,Female,kwassunggw
610,Alexandro,Van Haeften,avanhaeftengx@blogger.com,Male,avanhaeftengx
611,Guinna,Narraway,gnarrawaygy@printfriendly.com,Female,gnarrawaygy
612,Drud,White,dwhitegz@sciencedaily.com,Male,dwhitegz
613,Raimundo,Hansman,rhansmanh0@fda.gov,Male,rhansmanh0
614,Kerri,Kase,kkaseh1@goodreads.com,Female,kkaseh1
615,Rab,Berendsen,rberendsenh2@yellowpages.com,Male,rberendsenh2
616,Dodi,Merkel,dmerkelh3@example.com,Female,dmerkelh3
617,Wynnie,Lyttle,wlyttleh4@ftc.gov,Female,wlyttleh4
618,Callean,Ganning,cganningh5@purevolume.com,Male,cganningh5
619,Gerianne,Gaize,ggaizeh6@youtu.be,Female,ggaizeh6
620,Christiane,Lancaster,clancasterh7@google.es,Female,clancasterh7
621,Latrena,Teesdale,lteesdaleh8@ucoz.ru,Female,lteesdaleh8
622,Siward,Grimsdale,sgrimsdaleh9@illinois.edu,Male,sgrimsdaleh9
623,Whit,Lancaster,wlancasterha@archive.org,Male,wlancasterha
624,Mahmoud,Noell,mnoellhb@miibeian.gov.cn,Male,mnoellhb
625,Abra,Harrow,aharrowhc@amazon.com,Female,aharrowhc
626,Randolph,Ovitts,rovittshd@microsoft.com,Male,rovittshd
627,Monica,Beller,mbellerhe@etsy.com,Female,mbellerhe
628,Meg,Riggott,mriggotthf@accuweather.com,Female,mriggotthf
629,Verne,Sange,vsangehg@opera.com,Male,vsangehg
630,Zeb,Warriner,zwarrinerhh@de.vu,Male,zwarrinerhh
631,Patty,Olivetta,polivettahi@i2i.jp,Male,polivettahi
632,Emlyn,Sangwine,esangwinehj@cloudflare.com,Female,esangwinehj
633,Bernarr,Von Welden,bvonweldenhk@yahoo.com,Male,bvonweldenhk
634,Andrej,Pattingson,apattingsonhl@webs.com,Male,apattingsonhl
635,Tabor,Deane,tdeanehm@nhs.uk,Male,tdeanehm
636,Field,Ripon,friponhn@yellowbook.com,Male,friponhn
637,Angy,Ibberson,aibbersonho@soup.io,Female,aibbersonho
638,Toby,Bignell,tbignellhp@forbes.com,Female,tbignellhp
639,Gabriel,Blackaller,gblackallerhq@biglobe.ne.jp,Male,gblackallerhq
640,Nike,Gordon-Giles,ngordongileshr@shop-pro.jp,Female,ngordongileshr
641,Raleigh,Grigson,rgrigsonhs@adobe.com,Male,rgrigsonhs
642,Kane,Soppit,ksoppitht@printfriendly.com,Male,ksoppitht
643,Rozella,Biskupski,rbiskupskihu@ycombinator.com,Female,rbiskupskihu
644,Ker,Hawkshaw,khawkshawhv@un.org,Male,khawkshawhv
645,Lilyan,Richings,lrichingshw@ted.com,Female,lrichingshw
646,Nestor,Ancell,nancellhx@deliciousdays.com,Male,nancellhx
647,Dennet,Folke,dfolkehy@g.co,Male,dfolkehy
648,Feodor,Gazey,fgazeyhz@aol.com,Male,fgazeyhz
649,Sidonia,Capstake,scapstakei0@auda.org.au,Female,scapstakei0
650,Rosalind,Skittreal,rskittreali1@icio.us,Female,rskittreali1
651,Bianca,Millard,bmillardi2@yelp.com,Female,bmillardi2
652,Tore,Lyddiard,tlyddiardi3@miibeian.gov.cn,Male,tlyddiardi3
653,Darsey,Tuckley,dtuckleyi4@twitpic.com,Female,dtuckleyi4
654,Sully,Erswell,serswelli5@sphinn.com,Male,serswelli5
655,Christie,Raubenheimer,craubenheimeri6@lulu.com,Male,craubenheimeri6
656,Moise,Dener,mdeneri7@wunderground.com,Male,mdeneri7
657,Andonis,Blewis,ablewisi8@goo.gl,Male,ablewisi8
658,Calypso,Yersin,cyersini9@nsw.gov.au,Female,cyersini9
659,Judye,Spittall,jspittallia@bbc.co.uk,Female,jspittallia
660,Nola,Fielden,nfieldenib@seesaa.net,Female,nfieldenib
661,Pablo,Burren,pburrenic@whitehouse.gov,Male,pburrenic
662,Marley,Mackleden,mmackledenid@weather.com,Female,mmackledenid
663,Crissy,Furze,cfurzeie@reuters.com,Female,cfurzeie
664,Joan,Lovelock,jlovelockif@google.com.br,Female,jlovelockif
665,Inna,Breakspear,ibreakspearig@quantcast.com,Female,ibreakspearig
666,Darelle,Crilly,dcrillyih@oracle.com,Female,dcrillyih
667,Almeria,Ker,akerii@microsoft.com,Female,akerii
668,Dallas,Winsley,dwinsleyij@ebay.co.uk,Male,dwinsleyij
669,Kimberley,Rowe,kroweik@businesswire.com,Female,kroweik
670,Nona,Midgley,nmidgleyil@cpanel.net,Female,nmidgleyil
671,Papageno,Blune,pbluneim@marketwatch.com,Male,pbluneim
672,Winny,Torritti,wtorrittiin@w3.org,Male,wtorrittiin
673,Aland,de Clerc,adeclercio@dell.com,Male,adeclercio
674,Deedee,Aleksandrov,daleksandrovip@sourceforge.net,Female,daleksandrovip
675,Marius,Niaves,mniavesiq@ycombinator.com,Male,mniavesiq
676,Manolo,Gingedale,mgingedaleir@europa.eu,Male,mgingedaleir
677,Margarete,Harriman,mharrimanis@cbslocal.com,Female,mharrimanis
678,Kipp,Willisch,kwillischit@unc.edu,Male,kwillischit
679,Gabi,Harteley,gharteleyiu@networkadvertising.org,Female,gharteleyiu
680,Valentina,Thorsen,vthorseniv@theguardian.com,Female,vthorseniv
681,Adan,Childers,achildersiw@marriott.com,Female,achildersiw
682,Jarrid,Boatwright,jboatwrightix@businesswire.com,Male,jboatwrightix
683,Cordi,Sperrett,csperrettiy@disqus.com,Female,csperrettiy
684,Fae,Lindermann,flindermanniz@pbs.org,Female,flindermanniz
685,Rick,Fenney,rfenneyj0@163.com,Male,rfenneyj0
686,Meyer,Illiston,millistonj1@over-blog.com,Male,millistonj1
687,Lilly,Masham,lmashamj2@example.com,Female,lmashamj2
688,Rennie,Pickworth,rpickworthj3@liveinternet.ru,Female,rpickworthj3
689,Melina,Unger,mungerj4@harvard.edu,Female,mungerj4
690,Ruth,Borge,rborgej5@stumbleupon.com,Female,rborgej5
691,Elvira,Rubes,erubesj6@ox.ac.uk,Female,erubesj6
692,Barron,Minithorpe,bminithorpej7@tumblr.com,Male,bminithorpej7
693,Madlin,Devonport,mdevonportj8@si.edu,Female,mdevonportj8
694,Devy,Plaskitt,dplaskittj9@google.ru,Male,dplaskittj9
695,Ruby,Issatt,rissattja@washingtonpost.com,Female,rissattja
696,Xever,Jaques,xjaquesjb@howstuffworks.com,Male,xjaquesjb
697,Brigg,Roots,brootsjc@redcross.org,Male,brootsjc
698,Alena,Wilfinger,awilfingerjd@ifeng.com,Female,awilfingerjd
699,Carly,Burner,cburnerje@people.com.cn,Male,cburnerje
700,Aliza,Chrismas,achrismasjf@hubpages.com,Female,achrismasjf
701,Cornell,Lifton,cliftonjg@blogtalkradio.com,Male,cliftonjg
702,Annabell,Fewell,afewelljh@webnode.com,Female,afewelljh
703,Jude,Brandsma,jbrandsmaji@google.de,Male,jbrandsmaji
704,Starr,Stigell,sstigelljj@friendfeed.com,Female,sstigelljj
705,Dita,Karpmann,dkarpmannjk@google.es,Female,dkarpmannjk
706,Aggy,Ridding,ariddingjl@cbsnews.com,Female,ariddingjl
707,Filia,Sullly,fsulllyjm@gmpg.org,Female,fsulllyjm
708,Morgan,Akid,makidjn@goo.gl,Male,makidjn
709,Casi,Postles,cpostlesjo@ucoz.com,Female,cpostlesjo
710,Jackelyn,Jagson,jjagsonjp@phoca.cz,Female,jjagsonjp
711,Arly,Abramof,aabramofjq@w3.org,Female,aabramofjq
712,Blinnie,Jedrzejkiewicz,bjedrzejkiewiczjr@blinklist.com,Female,bjedrzejkiewiczjr
713,Jordanna,Gatesman,jgatesmanjs@skyrock.com,Female,jgatesmanjs
714,Corty,Drews,cdrewsjt@nsw.gov.au,Male,cdrewsjt
715,Hana,Skedge,hskedgeju@naver.com,Female,hskedgeju
716,Darcy,O'Luney,doluneyjv@springer.com,Male,doluneyjv
717,Saidee,Layus,slayusjw@disqus.com,Female,slayusjw
718,Howie,Michie,hmichiejx@scribd.com,Male,hmichiejx
719,Dara,Sobey,dsobeyjy@ted.com,Female,dsobeyjy
720,Thomasa,Penkman,tpenkmanjz@telegraph.co.uk,Female,tpenkmanjz
721,Melly,Botterman,mbottermank0@salon.com,Female,mbottermank0
722,Augusta,MacAughtrie,amacaughtriek1@is.gd,Female,amacaughtriek1
723,Brockie,Leppard,bleppardk2@soup.io,Male,bleppardk2
724,Dale,Rathke,drathkek3@yahoo.co.jp,Male,drathkek3
725,Hilly,Jasik,hjasikk4@etsy.com,Male,hjasikk4
726,Bronny,Semens,bsemensk5@disqus.com,Male,bsemensk5
727,Milena,Worts,mwortsk6@t-online.de,Female,mwortsk6
728,Austen,Dietsche,adietschek7@oaic.gov.au,Male,adietschek7
729,Deanne,Yeardley,dyeardleyk8@flickr.com,Female,dyeardleyk8
730,Franz,Kelway,fkelwayk9@google.pl,Male,fkelwayk9
731,Pepito,Noen,pnoenka@imageshack.us,Male,pnoenka
732,Joceline,Cornilleau,jcornilleaukb@springer.com,Female,jcornilleaukb
733,Shandee,Gorman,sgormankc@over-blog.com,Female,sgormankc
734,Patty,Enderle,penderlekd@narod.ru,Male,penderlekd
735,Kevan,Gatty,kgattyke@over-blog.com,Male,kgattyke
736,Ag,Duley,aduleykf@free.fr,Female,aduleykf
737,Sylvan,MacAllaster,smacallasterkg@last.fm,Male,smacallasterkg
738,Kipp,Jurczyk,kjurczykkh@ustream.tv,Male,kjurczykkh
739,Edy,Tissier,etissierki@jalbum.net,Female,etissierki
740,Abdul,Roselli,arosellikj@ameblo.jp,Male,arosellikj
741,Clive,Sleightholme,csleightholmekk@ftc.gov,Male,csleightholmekk
742,Hashim,Pallas,hpallaskl@geocities.com,Male,hpallaskl
743,Darill,Hosburn,dhosburnkm@cargocollective.com,Male,dhosburnkm
744,Shell,McAless,smcalesskn@feedburner.com,Male,smcalesskn
745,Kerianne,Ioannou,kioannouko@state.tx.us,Female,kioannouko
746,Kari,Riggey,kriggeykp@ask.com,Female,kriggeykp
747,Arlen,Rosindill,arosindillkq@github.com,Male,arosindillkq
748,Manya,Bartolomeotti,mbartolomeottikr@ebay.co.uk,Female,mbartolomeottikr
749,Christiane,Empson,cempsonks@mail.ru,Female,cempsonks
750,Lanette,Pyson,lpysonkt@chron.com,Female,lpysonkt
751,Sybille,MacCard,smaccardku@linkedin.com,Female,smaccardku
752,Matteo,Brader,mbraderkv@washington.edu,Male,mbraderkv
753,Debora,Slatford,dslatfordkw@phoca.cz,Female,dslatfordkw
754,Larisa,Lindermann,llindermannkx@ihg.com,Female,llindermannkx
755,Bliss,Abrahami,babrahamiky@wiley.com,Female,babrahamiky
756,Alvera,Ruggs,aruggskz@sciencedaily.com,Female,aruggskz
757,Nil,Napper,nnapperl0@canalblog.com,Male,nnapperl0
758,Morten,Swatton,mswattonl1@dedecms.com,Male,mswattonl1
759,Wang,Thredder,wthredderl2@cloudflare.com,Male,wthredderl2
760,Melisandra,Nelmes,mnelmesl3@alexa.com,Female,mnelmesl3
761,Roman,Tym,rtyml4@upenn.edu,Male,rtyml4
762,Nappy,Devenny,ndevennyl5@over-blog.com,Male,ndevennyl5
763,Crosby,Naish,cnaishl6@hugedomains.com,Male,cnaishl6
764,Delainey,Jauncey,djaunceyl7@delicious.com,Male,djaunceyl7
765,Tann,Savatier,tsavatierl8@shop-pro.jp,Male,tsavatierl8
766,Shae,Blind,sblindl9@slideshare.net,Male,sblindl9
767,Yule,Knowles,yknowlesla@xinhuanet.com,Male,yknowlesla
768,Shayne,Mancell,smancelllb@lulu.com,Female,smancelllb
769,Tobe,Sineath,tsineathlc@cdbaby.com,Male,tsineathlc
770,Chilton,O'Carrol,cocarrolld@opera.com,Male,cocarrolld
771,Lynnette,Rizzo,lrizzole@homestead.com,Female,lrizzole
772,Dietrich,Lipscomb,dlipscomblf@discuz.net,Male,dlipscomblf
773,Gustav,Bims,gbimslg@ebay.co.uk,Male,gbimslg
774,Bank,Yukhnin,byukhninlh@forbes.com,Male,byukhninlh
775,Bernard,Slocket,bslocketli@simplemachines.org,Male,bslocketli
776,Morris,Sissot,msissotlj@telegraph.co.uk,Male,msissotlj
777,Naomi,Arnholdt,narnholdtlk@elegantthemes.com,Female,narnholdtlk
778,Georgetta,Kuschke,gkuschkell@ow.ly,Female,gkuschkell
779,Hesther,Rushford,hrushfordlm@businesswire.com,Female,hrushfordlm
780,Marjorie,Bleackley,mbleackleyln@businessweek.com,Female,mbleackleyln
781,Lucian,Enser,lenserlo@patch.com,Male,lenserlo
782,Hana,Dowman,hdowmanlp@irs.gov,Female,hdowmanlp
783,Josee,Durtnell,jdurtnelllq@sourceforge.net,Female,jdurtnelllq
784,Cinda,Neles,cneleslr@oakley.com,Female,cneleslr
785,Lucine,Francisco,lfranciscols@rediff.com,Female,lfranciscols
786,Horatius,Marriott,hmarriottlt@blog.com,Male,hmarriottlt
787,Rhett,Couve,rcouvelu@google.de,Male,rcouvelu
788,Marven,Jantet,mjantetlv@sourceforge.net,Male,mjantetlv
789,Maddy,Wyleman,mwylemanlw@discovery.com,Male,mwylemanlw
790,Rene,Goldhawk,rgoldhawklx@google.it,Female,rgoldhawklx
791,Corbet,Grayshon,cgrayshonly@dropbox.com,Male,cgrayshonly
792,Morganne,Stuffins,mstuffinslz@wikipedia.org,Female,mstuffinslz
793,Wendel,Clench,wclenchm0@guardian.co.uk,Male,wclenchm0
794,Land,Attwoull,lattwoullm1@xinhuanet.com,Male,lattwoullm1
795,Blake,Largen,blargenm2@fc2.com,Male,blargenm2
796,Byram,Fierro,bfierrom3@ocn.ne.jp,Male,bfierrom3
797,Emlynn,Goodered,egooderedm4@nhs.uk,Female,egooderedm4
798,Gene,Aslum,gaslumm5@umn.edu,Male,gaslumm5
799,Margalo,Ende,mendem6@eventbrite.com,Female,mendem6
800,Glennis,Clewes,gclewesm7@omniture.com,Female,gclewesm7
801,Doralynn,Ormerod,dormerodm8@buzzfeed.com,Female,dormerodm8
802,Cleavland,Auten,cautenm9@craigslist.org,Male,cautenm9
803,Darnall,Schechter,dschechterma@geocities.com,Male,dschechterma
804,Gwenora,Akett,gakettmb@nps.gov,Female,gakettmb
805,Brigham,Zanitti,bzanittimc@google.com,Male,bzanittimc
806,Ossie,Jerred,ojerredmd@mapquest.com,Male,ojerredmd
807,Giacobo,Goulthorp,ggoulthorpme@deviantart.com,Male,ggoulthorpme
808,Isaiah,Fossord,ifossordmf@php.net,Male,ifossordmf
809,Mateo,Van Salzberger,mvansalzbergermg@adobe.com,Male,mvansalzbergermg
810,Alanson,Tenaunt,atenauntmh@dion.ne.jp,Male,atenauntmh
811,Regine,Kas,rkasmi@zimbio.com,Female,rkasmi
812,Iorgo,Insley,iinsleymj@about.me,Male,iinsleymj
813,Harmonie,Paddison,hpaddisonmk@bandcamp.com,Female,hpaddisonmk
814,Ron,Kitchaside,rkitchasideml@ebay.com,Male,rkitchasideml
815,Keary,Mutter,kmuttermm@rambler.ru,Male,kmuttermm
816,Bennie,Rigmond,brigmondmn@naver.com,Male,brigmondmn
817,Winnifred,Jeannard,wjeannardmo@rakuten.co.jp,Female,wjeannardmo
818,Grannie,Fronsek,gfronsekmp@illinois.edu,Male,gfronsekmp
819,Stephana,Houdhury,shoudhurymq@ask.com,Female,shoudhurymq
820,Si,Ekless,seklessmr@comsenz.com,Male,seklessmr
821,Rochette,Straniero,rstranieroms@answers.com,Female,rstranieroms
822,Eadie,Tabart,etabartmt@macromedia.com,Female,etabartmt
823,Rich,Godden,rgoddenmu@360.cn,Male,rgoddenmu
824,Davine,Fisbey,dfisbeymv@fotki.com,Female,dfisbeymv
825,Ulrike,Athersmith,uathersmithmw@scientificamerican.com,Female,uathersmithmw
826,Eugenie,Ostick,eostickmx@hud.gov,Female,eostickmx
827,Burnard,Tottman,btottmanmy@homestead.com,Male,btottmanmy
828,Igor,Nyland,inylandmz@sciencedaily.com,Male,inylandmz
829,Jamal,Mellhuish,jmellhuishn0@instagram.com,Male,jmellhuishn0
830,Gordy,Hundall,ghundalln1@nytimes.com,Male,ghundalln1
831,Brian,Wearn,bwearnn2@zdnet.com,Male,bwearnn2
832,Virgil,Gornal,vgornaln3@weebly.com,Male,vgornaln3
833,Brynne,Harnes,bharnesn4@seesaa.net,Female,bharnesn4
834,Wittie,Hiddy,whiddyn5@yellowbook.com,Male,whiddyn5
835,Morse,Briddle,mbriddlen6@elegantthemes.com,Male,mbriddlen6
836,Dorette,Agastina,dagastinan7@alexa.com,Female,dagastinan7
837,Julina,Smeaton,jsmeatonn8@prnewswire.com,Female,jsmeatonn8
838,Kanya,Blaze,kblazen9@ca.gov,Female,kblazen9
839,Sharla,Tetley,stetleyna@theglobeandmail.com,Female,stetleyna
840,Jennine,Falls,jfallsnb@linkedin.com,Female,jfallsnb
841,Thoma,Sickamore,tsickamorenc@cornell.edu,Male,tsickamorenc
842,Jeni,Reddings,jreddingsnd@bloomberg.com,Female,jreddingsnd
843,Nicoli,Klimuk,nklimukne@oakley.com,Female,nklimukne
844,Katharine,Coffin,kcoffinnf@dmoz.org,Female,kcoffinnf
845,Timothee,Eborn,tebornng@ucsd.edu,Male,tebornng
846,Carey,Mullis,cmullisnh@thetimes.co.uk,Female,cmullisnh
847,Teena,Dulson,tdulsonni@chronoengine.com,Female,tdulsonni
848,Teodoor,Orrocks,torrocksnj@apache.org,Male,torrocksnj
849,Carmen,Christon,cchristonnk@storify.com,Female,cchristonnk
850,Roxine,Glasspoole,rglasspoolenl@google.com.br,Female,rglasspoolenl
851,Orville,Bahde,obahdenm@chron.com,Male,obahdenm
852,Willis,Jolliffe,wjolliffenn@cbsnews.com,Male,wjolliffenn
853,Leonidas,Gosart,lgosartno@bluehost.com,Male,lgosartno
854,Ferris,Prott,fprottnp@berkeley.edu,Male,fprottnp
855,Kelbee,Darey,kdareynq@nsw.gov.au,Male,kdareynq
856,Kennith,Pendrid,kpendridnr@intel.com,Male,kpendridnr
857,Sylvan,Beavis,sbeavisns@canalblog.com,Male,sbeavisns
858,Christophorus,Bramah,cbramahnt@netlog.com,Male,cbramahnt
859,Hilary,Tutchener,htutchenernu@usda.gov,Female,htutchenernu
860,Merle,Popping,mpoppingnv@cdbaby.com,Male,mpoppingnv
861,Rab,Fulleylove,rfulleylovenw@vimeo.com,Male,rfulleylovenw
862,Daryl,Please,dpleasenx@fotki.com,Male,dpleasenx
863,Mab,Akess,makessny@google.cn,Female,makessny
864,Hector,Bonnett,hbonnettnz@fema.gov,Male,hbonnettnz
865,Con,De Gregoli,cdegregolio0@themeforest.net,Female,cdegregolio0
866,Hermon,Brewett,hbrewetto1@lulu.com,Male,hbrewetto1
867,Gerik,Edghinn,gedghinno2@123-reg.co.uk,Male,gedghinno2
868,Debbi,Kippling,dkipplingo3@xrea.com,Female,dkipplingo3
869,Inness,McInnes,imcinneso4@wikipedia.org,Male,imcinneso4
870,Bobby,Sansom,bsansomo5@abc.net.au,Male,bsansomo5
871,Husein,Mattiello,hmattielloo6@domainmarket.com,Male,hmattielloo6
872,Bonny,Blood,bbloodo7@sakura.ne.jp,Female,bbloodo7
873,Lindsay,Lidgerton,llidgertono8@sakura.ne.jp,Female,llidgertono8
874,Andeee,Conyers,aconyerso9@ehow.com,Female,aconyerso9
875,Ara,Hadgraft,ahadgraftoa@apple.com,Female,ahadgraftoa
876,Todd,Daly,tdalyob@toplist.cz,Male,tdalyob
877,Jessica,Cobain,jcobainoc@blogger.com,Female,jcobainoc
878,Cam,Fass,cfassod@cnn.com,Male,cfassod
879,Eleonore,Koppen,ekoppenoe@tiny.cc,Female,ekoppenoe
880,Kimmy,Vasyagin,kvasyaginof@jigsy.com,Female,kvasyaginof
881,Deane,Lies,dliesog@mayoclinic.com,Male,dliesog
882,Brigit,Clapison,bclapisonoh@histats.com,Female,bclapisonoh
883,Chuck,Emney,cemneyoi@virginia.edu,Male,cemneyoi
884,Charin,Bracknell,cbracknelloj@comsenz.com,Female,cbracknelloj
885,Guinna,Stilling,gstillingok@geocities.com,Female,gstillingok
886,Julina,Simkovich,jsimkovichol@shareasale.com,Female,jsimkovichol
887,Jamima,Smylie,jsmylieom@xing.com,Female,jsmylieom
888,Marie-ann,Ossipenko,mossipenkoon@thetimes.co.uk,Female,mossipenkoon
889,Barclay,Heinert,bheinertoo@sciencedaily.com,Male,bheinertoo
890,Torey,Agget,taggetop@behance.net,Male,taggetop
891,Dorey,Sworder,dsworderoq@nytimes.com,Male,dsworderoq
892,Glyn,Dowry,gdowryor@eventbrite.com,Male,gdowryor
893,Riva,Nesey,rneseyos@berkeley.edu,Female,rneseyos
894,Lilah,Aven,lavenot@smh.com.au,Female,lavenot
895,Grier,Overnell,governellou@hc360.com,Female,governellou
896,Leeanne,Margery,lmargeryov@boston.com,Female,lmargeryov
897,Ginger,Godon,ggodonow@cnbc.com,Female,ggodonow
898,Walt,Grigg,wgriggox@studiopress.com,Male,wgriggox
899,Wendie,Whitecross,wwhitecrossoy@reverbnation.com,Female,wwhitecrossoy
900,Jennifer,Craighead,jcraigheadoz@list-manage.com,Female,jcraigheadoz
901,Trescha,Barkaway,tbarkawayp0@mysql.com,Female,tbarkawayp0
902,Malcolm,Purse,mpursep1@google.es,Male,mpursep1
903,Cassius,O'Crowley,cocrowleyp2@biblegateway.com,Male,cocrowleyp2
904,Gallagher,Baugham,gbaughamp3@reddit.com,Male,gbaughamp3
905,Sargent,Hinrichsen,shinrichsenp4@tinypic.com,Male,shinrichsenp4
906,Gaby,Rodgers,grodgersp5@baidu.com,Female,grodgersp5
907,Merline,Shepheard,mshepheardp6@amazonaws.com,Female,mshepheardp6
908,Murvyn,Gibbons,mgibbonsp7@prlog.org,Male,mgibbonsp7
909,Fredericka,Murphy,fmurphyp8@alibaba.com,Female,fmurphyp8
910,Tasha,Porteous,tporteousp9@wikimedia.org,Female,tporteousp9
911,Marjory,Luc,mlucpa@1688.com,Female,mlucpa
912,Redd,Nagle,rnaglepb@cdbaby.com,Male,rnaglepb
913,Bernie,Golightly,bgolightlypc@netscape.com,Female,bgolightlypc
914,Matthieu,Tuxell,mtuxellpd@parallels.com,Male,mtuxellpd
915,Heriberto,Evenden,hevendenpe@google.com.au,Male,hevendenpe
916,Christen,Dobson,cdobsonpf@constantcontact.com,Female,cdobsonpf
917,Shelley,Forst,sforstpg@blinklist.com,Female,sforstpg
918,Inglebert,Merrydew,imerrydewph@prweb.com,Male,imerrydewph
919,Darryl,Little,dlittlepi@nasa.gov,Female,dlittlepi
920,Otha,Killoran,okilloranpj@technorati.com,Female,okilloranpj
921,Orsola,Warricker,owarrickerpk@ow.ly,Female,owarrickerpk
922,Fionnula,Wylder,fwylderpl@alibaba.com,Female,fwylderpl
923,Rennie,Jemison,rjemisonpm@lulu.com,Female,rjemisonpm
924,Ianthe,Struthers,istrutherspn@twitter.com,Female,istrutherspn
925,Henka,Laker,hlakerpo@rambler.ru,Female,hlakerpo
926,Kimbra,Claricoates,kclaricoatespp@ed.gov,Female,kclaricoatespp
927,Sollie,Mackison,smackisonpq@vimeo.com,Male,smackisonpq
928,Connor,Yousef,cyousefpr@walmart.com,Male,cyousefpr
929,Alexina,Roz,arozps@about.me,Female,arozps
930,Janine,Silversmidt,jsilversmidtpt@google.de,Female,jsilversmidtpt
931,Sybilla,Elsegood,selsegoodpu@rediff.com,Female,selsegoodpu
932,Jobi,Aldrick,jaldrickpv@fema.gov,Female,jaldrickpv
933,Loria,Worsnip,lworsnippw@utexas.edu,Female,lworsnippw
934,Swen,Crippes,scrippespx@yandex.ru,Male,scrippespx
935,Kellyann,Harland,kharlandpy@yellowbook.com,Female,kharlandpy
936,Mathilda,Hatherley,mhatherleypz@blogs.com,Female,mhatherleypz
937,Robina,Zorener,rzorenerq0@livejournal.com,Female,rzorenerq0
938,Othelia,Kubasiewicz,okubasiewiczq1@hexun.com,Female,okubasiewiczq1
939,Susie,Masterton,smastertonq2@issuu.com,Female,smastertonq2
940,Caritta,Simenon,csimenonq3@friendfeed.com,Female,csimenonq3
941,Julio,Kindall,jkindallq4@statcounter.com,Male,jkindallq4
942,Jose,Tomczykiewicz,jtomczykiewiczq5@storify.com,Male,jtomczykiewiczq5
943,Marcelo,Scneider,mscneiderq6@simplemachines.org,Male,mscneiderq6
944,Kaye,Chason,kchasonq7@cafepress.com,Female,kchasonq7
945,Kip,Young,kyoungq8@state.gov,Male,kyoungq8
946,Eleanore,Seary,esearyq9@163.com,Female,esearyq9
947,Rossie,Gibbie,rgibbieqa@photobucket.com,Male,rgibbieqa
948,Irving,Baylis,ibaylisqb@engadget.com,Male,ibaylisqb
949,Bartel,Gilliard,bgilliardqc@sbwire.com,Male,bgilliardqc
950,Berny,Bleazard,bbleazardqd@theguardian.com,Female,bbleazardqd
951,Leann,Sickling,lsicklingqe@businessweek.com,Female,lsicklingqe
952,Gennie,Hazel,ghazelqf@boston.com,Female,ghazelqf
953,Ira,Worgan,iworganqg@posterous.com,Male,iworganqg
954,Alexandro,Matchell,amatchellqh@unesco.org,Male,amatchellqh
955,Augustine,Bortol,abortolqi@eventbrite.com,Male,abortolqi
956,Adele,Fulmen,afulmenqj@bbc.co.uk,Female,afulmenqj
957,Raphael,Pedel,rpedelqk@google.com.hk,Male,rpedelqk
958,Reggy,Aris,rarisql@ft.com,Male,rarisql
959,Murdock,MacHoste,mmachosteqm@zdnet.com,Male,mmachosteqm
960,Vivi,Lemmanbie,vlemmanbieqn@samsung.com,Female,vlemmanbieqn
961,Marlo,Dobney,mdobneyqo@printfriendly.com,Female,mdobneyqo
962,Bibbie,Kydd,bkyddqp@fc2.com,Female,bkyddqp
963,Orran,Boydle,oboydleqq@over-blog.com,Male,oboydleqq
964,Fay,Melley,fmelleyqr@ask.com,Female,fmelleyqr
965,Bone,La Vigne,blavigneqs@umich.edu,Male,blavigneqs
966,Paulette,Neely,pneelyqt@boston.com,Female,pneelyqt
967,Cherice,Sooley,csooleyqu@google.es,Female,csooleyqu
968,Crin,Garken,cgarkenqv@sogou.com,Female,cgarkenqv
969,Ethyl,Labba,elabbaqw@odnoklassniki.ru,Female,elabbaqw
970,Leland,Rickerd,lrickerdqx@mozilla.org,Male,lrickerdqx
971,Alma,Gobeaux,agobeauxqy@mit.edu,Female,agobeauxqy
972,Deborah,Conniam,dconniamqz@rakuten.co.jp,Female,dconniamqz
973,Lucky,Lars,llarsr0@exblog.jp,Female,llarsr0
974,Ruthann,Coughtrey,rcoughtreyr1@desdev.cn,Female,rcoughtreyr1
975,Corina,Gligori,cgligorir2@cbslocal.com,Female,cgligorir2
976,Lancelot,Crolla,lcrollar3@prlog.org,Male,lcrollar3
977,Gianna,Stace,gstacer4@reddit.com,Female,gstacer4
978,Alvira,Payfoot,apayfootr5@youtube.com,Female,apayfootr5
979,Anita,Gounet,agounetr6@columbia.edu,Female,agounetr6
980,Archer,Anthill,aanthillr7@xrea.com,Male,aanthillr7
981,Perri,Wickstead,pwicksteadr8@photobucket.com,Female,pwicksteadr8
982,Nelly,Winter,nwinterr9@paginegialle.it,Female,nwinterr9
983,Kristien,Elrick,kelrickra@free.fr,Female,kelrickra
984,Molly,Ruggen,mruggenrb@eepurl.com,Female,mruggenrb
985,Christine,McManus,cmcmanusrc@twitpic.com,Female,cmcmanusrc
986,Valeda,Duckhouse,vduckhouserd@1und1.de,Female,vduckhouserd
987,Chryste,O'Hartigan,cohartiganre@spotify.com,Female,cohartiganre
988,Evyn,Egel,eegelrf@dyndns.org,Male,eegelrf
989,Carlene,Brunton,cbruntonrg@adobe.com,Female,cbruntonrg
990,Gerrard,Gregoraci,ggregoracirh@mtv.com,Male,ggregoracirh
991,Marga,Nussgen,mnussgenri@eepurl.com,Female,mnussgenri
992,Alyce,Gallehawk,agallehawkrj@imgur.com,Female,agallehawkrj
993,Gerik,Kikke,gkikkerk@ovh.net,Male,gkikkerk
994,Adela,Shear,ashearrl@free.fr,Female,ashearrl
995,Darby,Cape,dcaperm@scientificamerican.com,Male,dcaperm
996,Estele,Wrench,ewrenchrn@newyorker.com,Female,ewrenchrn
997,Omero,Tytherton,otythertonro@lulu.com,Male,otythertonro
998,Sophronia,Chalice,schalicerp@gnu.org,Female,schalicerp
999,Marja,Mote,mmoterq@freewebs.com,Female,mmoterq
1000,Deanne,Starmer,dstarmerrr@ebay.co.uk,Female,dstarmerrr
